{
	"pointing":
		{"target":
			{
				"system":"ICRS",
				"name":"Polaris Australis","RA":"21:08:47.92","dec":"-88:57:22.9"
			}
		},
	"dish":
		{"receiverBand":"1"},
	"csp":{
		"interface":"https://schema.skatelescope.org/ska-csp-configure/1.0",
		"subarray":{"subarrayName":"science period 23"},
		"common":{
				"id":"sbi-mvp01-20200325-00001-science_A",
				"frequencyBand":"1",
				"subarrayID":1
			},
		"cbf":{
			"fsp":[{
				"fspID":1,
				"functionMode":"CORR",
				"frequencySliceID":1,
				"integrationTime":1400,
				"corrBandwidth":0,
				"channelAveragingMap":[[0,2],[744,0]],
				"fspChannelOffset":0,
				"outputLinkMap":[[0,0],[200,1]],
				"outputHost":[[0,"192.168.1.1"]],
				"outputPort":[[0,9000,1]]
				},
				{
				"fspID":2,
				"functionMode":"CORR",
				"frequencySliceID":2,
				"integrationTime":1400,
				"corrBandwidth":0,
				"channelAveragingMap":[[0,2],[744,0]],
				"fspChannelOffset":744,
				"outputLinkMap":[[0,4],[200,5]],
				"outputHost":[[0,"192.168.1.1"]],
				"outputPort":[[0,9744,1]]
				}
				],
			"vlbi":{}
			},
		"pss":{},
		"pst":{}
		},
	"sdp":{"scan_type":"science_A"},
	"tmc":{"scanDuration":6.0}
}
